Introduction to R for Data Analysis
…
---

## `augment()`

.tinyish[

```r
broom::augment(simple_linear_model)
```

```
## # A tibble: 3,103 x 12
##    .rownames likelihood_infe~ age_cat   sex political_orien~ .fitted .se.fit
##    <chr>                <dbl> <fct>   <dbl>            <dbl>   <dbl>   <dbl>
##  1 2                        5 7           2                5    4.11  0.0484
##  2 3                        5 8           1                5    3.85  0.0695
##  3 4                        4 4           1                7    4.40  0.0823
##  4 6                        3 10          1               10    3.38  0.0902
##  5 7                        4 4           2                5    4.37  0.0786
##  6 8                        4 7           2                6    4.11  0.0515
##  7 10                       7 1           1                7    4.38  0.149 
##  8 11                       4 6           2                6    4.32  0.0758
##  9 12                       5 8           1                7    3.85  0.0740
## 10 14                       6 6           1                6    4.35  0.0749
## # ... with 3,093 more rows, and 5 more variables: .resid <dbl>, .hat <dbl>,
## #   .sigma <dbl>, .cooksd <dbl>, .std.resid <dbl>
```
…
