Introduction to R for Data Analysis
…
titanic <- read_csv("./data/titanic.csv")
```

Please note the column specifications. `readr` 'guesses' them based on the first 1000 observations (we will come back to this later).

---
class: middle
.tinyish[

```r
titanic
```

```
## # A tibble: 891 x 12
##    PassengerId Survived Pclass Name  Sex     Age SibSp Parch Ticket  Fare Cabin
##          <dbl>    <dbl>  <dbl> <chr> <chr> <dbl> <dbl> <dbl> <chr>  <dbl> <chr>
##  1           1        0      3 Brau~ male     22     1     0 A/5 2~  7.25 <NA> 
##  2           2        1      1 Cumi~ fema~    38     1     0 PC 17~ 71.3  C85  
##  3           3        1      3 Heik~ fema~    26     0     0 STON/~  7.92 <NA> 
##  4           4        1      1 Futr~ fema~    35     1     0 113803 53.1  C123 
##  5           5        0      3 Alle~ male     35     0     0 373450  8.05 <NA> 
##  6           6        0      3 Mora~ male     NA     0     0 330877  8.46 <NA> 
##  7           7        0      1 McCa~ male     54     0     0 17463  51.9  E46  
##  8           8        0      3 Pals~ male      2     3     1 349909 21.1  <NA> 
##  9           9        1      3 John~ fema~    27     0     2 347742 11.1  <NA> 
## 10          10        1      2 Nass~ fema~    14     1     0 237736 30.1  <NA> 
## # ... with 881 more rows, and 1 more variable: Embarked <chr>
```
…
unicorns <- read_xlsx("./data/observations.xlsx")
```

No output ☹️

---
class: middle

```r
unicorns
```

```
## # A tibble: 42 x 3
##    countryname  year   pop
##    <chr>       <dbl> <dbl>
##  1 Austria      1670    85
##  2 Austria      1671    83
##  3 Austria      1674    75
##  4 Austria      1675    82
##  5 Austria      1676    79
##  6 Austria      1677    70
##  7 Austria      1678    81
##  8 Austria      1680    80
##  9 France       1673    70
## 10 France       1674    79
## # ... with 32 more rows
```
…
```r
library(haven)

gp_covid <- 
  read_stata("./data/ZA5667_v1-1-0_Stata14.dta")
```

---

```r
gp_covid
```

```
## # A tibble: 3,765 x 137
##    za_number version doi      id cohort     sex  age_cat education_cat
##    <chr>     <chr>   <chr> <dbl>  <dbl> <dbl+l> <dbl+lb>     <dbl+lbl>
##  1 ZA5667    v1-1-0~ 10.4~     1      3 1 [Män~  7 [51 ~    3 [Hoch]  
##  2 ZA5667    v1-1-0~ 10.4~     2      1 2 [Wei~  7 [51 ~    2 [Mittel]
##  3 ZA5667    v1-1-0~ 10.4~     3      3 1 [Män~  8 [61 ~    2 [Mittel]
##  4 ZA5667    v1-1-0~ 10.4~     4      2 1 [Män~  4 [36 ~    3 [Hoch]  
##  5 ZA5667    v1-1-0~ 10.4~     5      1 2 [Wei~  1 [<=2~    3 [Hoch]  
##  6 ZA5667    v1-1-0~ 10.4~     6      1 1 [Män~ 10 [>=7~    2 [Mittel]
##  7 ZA5667    v1-1-0~ 10.4~     7      1 2 [Wei~  4 [36 ~    2 [Mittel]
##  8 ZA5667    v1-1-0~ 10.4~     8      2 2 [Wei~  7 [51 ~    3 [Hoch]  
##  9 ZA5667    v1-1-0~ 10.4~     9      1 1 [Män~  8 [61 ~    1 [Gering]
## 10 ZA5667    v1-1-0~ 10.4~    10      1 1 [Män~  1 [<=2~    3 [Hoch]  
## # ... with 3,755 more rows, and 129 more variables:
## #   intention_to_vote <dbl+lbl>, choice_of_party <dbl+lbl>,
## #   political_orientation <dbl+lbl>, marstat <dbl+lbl>, household <dbl+lbl>,
## #   hzcy001a <dbl+lbl>, hzcy002a <dbl+lbl>, hzcy003a <dbl+lbl>,
## #   hzcy004a <dbl+lbl>, hzcy005a <dbl+lbl>, hzcy006a <dbl+lbl>,
## #   hzcy007a <dbl+lbl>, hzcy008a <dbl+lbl>, hzcy009a <dbl+lbl>,
## #   hzcy010a <dbl+lbl>, hzcy011a <dbl+lbl>, hzcy012a <dbl+lbl>,
## #   hzcy013a <dbl+lbl>, hzcy014a <dbl+lbl>, hzcy015a <dbl+lbl>,
## #   hzcy016a <dbl+lbl>, hzcy018a <dbl+lbl>, hzcy019a <dbl+lbl>,
…
titanic
```
]

.right[↪️]

---
.tinyish[

```
## # A tibble: 891 x 12
##    PassengerId Survived Pclass Name  Sex     Age SibSp Parch Ticket  Fare Cabin
##          <dbl>    <dbl>  <dbl> <chr> <chr> <dbl> <dbl> <dbl> <chr>  <dbl> <chr>
##  1           1        0      3 Brau~ male     22     1     0 A/5 2~  7.25 <NA> 
##  2           2        1      1 Cumi~ fema~    38     1     0 PC 17~ 71.3  C85  
##  3           3        1      3 Heik~ fema~    26     0     0 STON/~  7.92 <NA> 
##  4           4        1      1 Futr~ fema~    35     1     0 113803 53.1  C123 
##  5           5        0      3 Alle~ male     35     0     0 373450  8.05 <NA> 
##  6           6        0      3 Mora~ male     NA     0     0 330877  8.46 <NA> 
##  7           7        0      1 McCa~ male     54     0     0 17463  51.9  E46  
##  8           8        0      3 Pals~ male      2     3     1 349909 21.1  <NA> 
##  9           9        1      3 John~ fema~    27     0     2 347742 11.1  <NA> 
## 10          10        1      2 Nass~ fema~    14     1     0 237736 30.1  <NA> 
## # ... with 881 more rows, and 1 more variable: Embarked <chr>
```
…
titanic
```
]

.right[↪️]

---
.tinyish[

```
## # A tibble: 891 x 12
##    PassengerId Survived Pclass Name  Sex     Age SibSp Parch Ticket  Fare Cabin
##          <dbl>    <dbl>  <dbl> <chr> <fct> <dbl> <dbl> <dbl> <chr>  <dbl> <chr>
##  1           1        0      3 Brau~ male     22     1     0 A/5 2~  7.25 <NA> 
##  2           2        1      1 Cumi~ fema~    38     1     0 PC 17~ 71.3  C85  
##  3           3        1      3 Heik~ fema~    26     0     0 STON/~  7.92 <NA> 
##  4           4        1      1 Futr~ fema~    35     1     0 113803 53.1  C123 
##  5           5        0      3 Alle~ male     35     0     0 373450  8.05 <NA> 
##  6           6        0      3 Mora~ male     NA     0     0 330877  8.46 <NA> 
##  7           7        0      1 McCa~ male     54     0     0 17463  51.9  E46  
##  8           8        0      3 Pals~ male      2     3     1 349909 21.1  <NA> 
##  9           9        1      3 John~ fema~    27     0     2 347742 11.1  <NA> 
## 10          10        1      2 Nass~ fema~    14     1     0 237736 30.1  <NA> 
## # ... with 881 more rows, and 1 more variable: Embarked <chr>
```
…
What we often find in these data are labels. These labels are used to describe variables or variable values. They comprise some specific metadata inherent in these proprietary file formats. 

*If you were able to travel ten years back in time and ask an `R` geek, she'd say that you cannot use labels in R. You'd either have to import, e.g., value labels as character strings or use their codes as factors. However, these days...*

---

## Not being able to use labelled data is the past
Nowadays, if you use the `haven` package, labels are built-in. For example:

```r
gp_covid["age_cat"]
```

```
## # A tibble: 3,765 x 1
##                 age_cat
##               <dbl+lbl>
##  1  7 [51 bis 60 Jahre]
##  2  7 [51 bis 60 Jahre]
##  3  8 [61 bis 65 Jahre]
##  4  4 [36 bis 40 Jahre]
##  5  1 [<=25 Jahre]     
##  6 10 [>=71 Jahre]     
##  7  4 [36 bis 40 Jahre]
##  8  7 [51 bis 60 Jahre]
##  9  8 [61 bis 65 Jahre]
## 10  1 [<=25 Jahre]     
## # ... with 3,755 more rows
```
…
